…
Question 6
----------

``` r
shots_data_dist <-mutate(shots_data,shot_distance=round(sqrt(x^2+y^2)))

                        
dist_shot_count <- count(shots_data_dist, shot_distance)

dsc <- arrange(rename(dist_shot_count,total=n),shot_distance)
dsc
```

    ## # A tibble: 351 x 2
    ##    shot_distance total
    ##            <dbl> <int>
    ##  1          1.00   246
    ##  2          2.00    12
    ##  3          3.00    16
    ##  4          4.00    14
    ##  5          5.00     8
    ##  6          6.00    13
    ##  7          7.00    39
    ##  8          8.00    31
    ##  9          9.00    28
    ## 10         10.0     18
    ## # ... with 341 more rows

``` r
efctv_shot_dist<-count(filter(shots_data_dist, shot_made_flag=="made shot"),
                                shot_distance)
efctv_shot_dist
```

    ## # A tibble: 292 x 2
    ##    shot_distance     n
    ##            <dbl> <int>
    ##  1          1.00   233
    ##  2          2.00     7
    ##  3          3.00    13
    ##  4          4.00     9
    ##  5          5.00     6
    ##  6          6.00     7
    ##  7          7.00    28
    ##  8          8.00    20
    ##  9          9.00    20
    ## 10         10.0     13
    ## # ... with 282 more rows

``` r
comb_dist <- left_join(dsc,efctv_shot_dist)
```

    ## Joining, by = "shot_distance"

``` r
comb_dist
```

    ## # A tibble: 351 x 3
    ##    shot_distance total     n
    ##            <dbl> <int> <int>
    ##  1          1.00   246   233
    ##  2          2.00    12     7
    ##  3          3.00    16    13
    ##  4          4.00    14     9
    ##  5          5.00     8     6
    ##  6          6.00    13     7
    ##  7          7.00    39    28
    ##  8          8.00    31    20
    ##  9          9.00    28    20
    ## 10         10.0     18    13
    ## # ... with 341 more rows

``` r
shooting_perc_dist <- arrange(mutate(comb_dist, 
                                     made_shot_prop=(n/total)))
spd <- select(shooting_perc_dist,shot_distance,made_shot_prop)
spd
```

    ## # A tibble: 351 x 2
    ##    shot_distance made_shot_prop
    ##            <dbl>          <dbl>
    ##  1          1.00          0.947
    ##  2          2.00          0.583
    ##  3          3.00          0.812
    ##  4          4.00          0.643
    ##  5          5.00          0.750
    ##  6          6.00          0.538
    ##  7          7.00          0.718
    ##  8          8.00          0.645
    ##  9          9.00          0.714
    ## 10         10.0           0.722
    ## # ... with 341 more rows
…
